{
	"commentStamp" : "TimM 7/9/2017 23:22",
	"super" : "Object",
	"category" : "Lambda",
	"classinstvars" : [ ],
	"pools" : [ ],
	"classvars" : [ ],
	"instvars" : [ ],
	"name" : "Lambda",
	"type" : "normal"
}